<?xml version="1.0" encoding="UTF-8"?>
<!DOCTYPE svg PUBLIC "-//W3C//DTD SVG 1.1//EN" "http://www.w3.org/Graphics/SVG/1.1/DTD/svg11.dtd">
<!-- Creator: CorelDRAW -->
<svg xmlns="http://www.w3.org/2000/svg" xml:space="preserve" width="512px" height="512px" version="1.1" style="shape-rendering:geometricPrecision; text-rendering:geometricPrecision; image-rendering:optimizeQuality; fill-rule:evenodd; clip-rule:evenodd"
viewBox="0 0 512 512"
 xmlns:xlink="http://www.w3.org/1999/xlink">
 <defs>
  <style type="text/css">
   <![CDATA[
    .fil4 {fill:#91E0E8}
    .fil1 {fill:#DAE1E9}
    .fil5 {fill:#DF5A49}
    .fil3 {fill:#DFDDDD}
    .fil0 {fill:#EEF6FF}
    .fil2 {fill:#FCBE37}
   ]]>
  </style>
 </defs>
 <g id="Layer_x0020_1">
  <metadata id="CorelCorpID_0Corel-Layer"/>
  <path class="fil0" d="M390 418l-368 0c-12,0 -22,-10 -22,-22l0 -260c0,-12 10,-22 22,-22l23 0c4,0 7,3 7,7l0 19 14 0 0 -19c0,-4 3,-7 7,-7l127 0c4,0 7,3 7,7l0 19 14 0 0 -19c0,-4 3,-7 7,-7l127 0c4,0 7,3 7,7l0 19 14 0 0 -19c0,-4 3,-7 7,-7l23 0c12,0 22,10 22,22l0 113c0,4 -3,7 -7,7 -43,0 -77,35 -77,77 0,31 19,60 48,71 4,2 5,5 5,8 -1,4 -4,6 -7,6z"/>
  <path class="fil1" d="M390 418l-23 0c-6,-4 -12,-9 -17,-14 -19,-19 -30,-44 -30,-71 0,-27 11,-52 30,-71 19,-19 44,-30 71,-30 2,0 5,0 7,0l0 17c0,4 -3,7 -7,7 -43,0 -77,35 -77,77 0,31 19,60 48,71 4,2 5,5 5,8 -1,4 -4,6 -7,6z"/>
  <path class="fil2" d="M421 424c-24,0 -47,-10 -64,-27 -18,-17 -27,-40 -27,-64 0,-24 9,-47 27,-64 17,-17 40,-27 64,-27 24,0 47,9 64,27 17,17 27,40 27,64 0,24 -9,47 -27,64 -17,17 -40,27 -64,27z"/>
  <path class="fil0" d="M400 373c0,0 0,0 0,0 -2,0 -4,-1 -5,-2l-23 -24c-3,-3 -3,-7 0,-10 3,-3 7,-3 10,0l18 19 61 -61c3,-3 7,-3 10,0 3,3 3,7 0,10l-66 66c-1,1 -3,2 -5,2z"/>
  <path class="fil3" d="M72 154l-27 0c-4,0 -7,-3 -7,-7l0 -52c0,-4 3,-7 7,-7l27 0c4,0 8,3 8,7l0 52c0,4 -4,7 -8,7z"/>
  <path class="fil3" d="M227 154l-27 0c-4,0 -7,-3 -7,-7l0 -52c0,-4 3,-7 7,-7l27 0c4,0 8,3 8,7l0 52c0,4 -4,7 -8,7z"/>
  <path class="fil3" d="M382 154l-27 0c-4,0 -7,-3 -7,-7l0 -52c0,-4 3,-7 7,-7l27 0c4,0 7,3 7,7l0 52c0,4 -3,7 -7,7z"/>
  <path class="fil4" d="M79 244l-40 0c-6,0 -10,-4 -10,-10l0 -27c0,-6 4,-10 10,-10l40 0c6,0 10,4 10,10l0 27c0,6 -4,10 -10,10z"/>
  <path class="fil4" d="M156 244l-40 0c-6,0 -10,-4 -10,-10l0 -27c0,-6 4,-10 10,-10l40 0c6,0 10,4 10,10l0 27c0,6 -4,10 -10,10z"/>
  <path class="fil4" d="M233 244l-40 0c-6,0 -10,-4 -10,-10l0 -27c0,-6 4,-10 10,-10l40 0c5,0 10,4 10,10l0 27c0,6 -5,10 -10,10z"/>
  <path class="fil4" d="M310 244l-40 0c-6,0 -10,-4 -10,-10l0 -27c0,-6 4,-10 10,-10l40 0c5,0 10,4 10,10l0 27c0,6 -5,10 -10,10z"/>
  <path class="fil4" d="M79 319l-40 0c-6,0 -10,-4 -10,-10l0 -27c0,-6 4,-10 10,-10l40 0c6,0 10,4 10,10l0 27c0,6 -4,10 -10,10z"/>
  <path class="fil4" d="M156 319l-40 0c-6,0 -10,-4 -10,-10l0 -27c0,-6 4,-10 10,-10l40 0c6,0 10,4 10,10l0 27c0,6 -4,10 -10,10z"/>
  <path class="fil4" d="M233 319l-40 0c-6,0 -10,-4 -10,-10l0 -27c0,-6 4,-10 10,-10l40 0c5,0 10,4 10,10l0 27c0,6 -5,10 -10,10z"/>
  <path class="fil4" d="M310 319l-40 0c-6,0 -10,-4 -10,-10l0 -27c0,-6 4,-10 10,-10l40 0c5,0 10,4 10,10l0 27c0,6 -5,10 -10,10z"/>
  <path class="fil4" d="M79 394l-40 0c-6,0 -10,-4 -10,-10l0 -27c0,-6 4,-10 10,-10l40 0c6,0 10,4 10,10l0 27c0,6 -4,10 -10,10z"/>
  <path class="fil4" d="M156 394l-40 0c-6,0 -10,-4 -10,-10l0 -27c0,-6 4,-10 10,-10l40 0c6,0 10,4 10,10l0 27c0,6 -4,10 -10,10z"/>
  <path class="fil4" d="M233 394l-40 0c-6,0 -10,-4 -10,-10l0 -27c0,-6 4,-10 10,-10l40 0c5,0 10,4 10,10l0 27c0,6 -5,10 -10,10z"/>
  <path class="fil4" d="M310 394l-40 0c-6,0 -10,-4 -10,-10l0 -27c0,-6 4,-10 10,-10l40 0c5,0 10,4 10,10l0 27c0,6 -5,10 -10,10z"/>
  <path class="fil5" d="M193 147l0 -33 -113 0 0 33c0,4 -4,7 -8,7l-27 0c-4,0 -7,-3 -7,-7l0 -33 -16 0c-12,0 -22,10 -22,22l0 37 0 14 428 0 0 -14 0 -37c0,-12 -10,-22 -22,-22l-17 0 0 33c0,4 -3,7 -7,7l-27 0c-4,0 -7,-3 -7,-7l0 -33 -113 0 0 33c0,4 -4,7 -8,7l-27 0c-4,0 -7,-3 -7,-7z"/>
 </g>
</svg>
